G04 #@! TF.FileFunction,Other,Fab,Bot*
%FSLAX46Y46*%
G04 Gerber Fmt 4.6, Leading zero omitted, Abs format (unit mm)*
G04 Created by KiCad (PCBNEW 4.0.6) date 05/29/18 11:26:13*
%MOMM*%
%LPD*%
G01*
G04 APERTURE LIST*
%ADD10C,0.100000*%
%ADD11C,0.101600*%
G04 APERTURE END LIST*
D10*
D11*
X71871315Y-40974324D02*
X71145600Y-40974324D01*
X71508457Y-42244324D02*
X71508457Y-40974324D01*
X70298934Y-41579086D02*
X70722267Y-41579086D01*
X70722267Y-42244324D02*
X70722267Y-40974324D01*
X70117505Y-40974324D01*
X69633696Y-42244324D02*
X69633696Y-40974324D01*
X69210363Y-41881467D01*
X68787029Y-40974324D01*
X68787029Y-42244324D01*
X68182267Y-41760514D02*
X67214648Y-41760514D01*
X65944648Y-42244324D02*
X66670362Y-42244324D01*
X66307505Y-42244324D02*
X66307505Y-40974324D01*
X66428457Y-41155752D01*
X66549410Y-41276705D01*
X66670362Y-41337181D01*
X65460838Y-41095276D02*
X65400362Y-41034800D01*
X65279410Y-40974324D01*
X64977029Y-40974324D01*
X64856076Y-41034800D01*
X64795600Y-41095276D01*
X64735124Y-41216229D01*
X64735124Y-41337181D01*
X64795600Y-41518610D01*
X65521314Y-42244324D01*
X64735124Y-42244324D01*
X63948933Y-40974324D02*
X63827981Y-40974324D01*
X63707029Y-41034800D01*
X63646552Y-41095276D01*
X63586076Y-41216229D01*
X63525600Y-41458133D01*
X63525600Y-41760514D01*
X63586076Y-42002419D01*
X63646552Y-42123371D01*
X63707029Y-42183848D01*
X63827981Y-42244324D01*
X63948933Y-42244324D01*
X64069886Y-42183848D01*
X64130362Y-42123371D01*
X64190838Y-42002419D01*
X64251314Y-41760514D01*
X64251314Y-41458133D01*
X64190838Y-41216229D01*
X64130362Y-41095276D01*
X64069886Y-41034800D01*
X63948933Y-40974324D01*
X62981314Y-41760514D02*
X62013695Y-41760514D01*
X61167028Y-40974324D02*
X61046076Y-40974324D01*
X60925124Y-41034800D01*
X60864647Y-41095276D01*
X60804171Y-41216229D01*
X60743695Y-41458133D01*
X60743695Y-41760514D01*
X60804171Y-42002419D01*
X60864647Y-42123371D01*
X60925124Y-42183848D01*
X61046076Y-42244324D01*
X61167028Y-42244324D01*
X61287981Y-42183848D01*
X61348457Y-42123371D01*
X61408933Y-42002419D01*
X61469409Y-41760514D01*
X61469409Y-41458133D01*
X61408933Y-41216229D01*
X61348457Y-41095276D01*
X61287981Y-41034800D01*
X61167028Y-40974324D01*
X60259885Y-41095276D02*
X60199409Y-41034800D01*
X60078457Y-40974324D01*
X59776076Y-40974324D01*
X59655123Y-41034800D01*
X59594647Y-41095276D01*
X59534171Y-41216229D01*
X59534171Y-41337181D01*
X59594647Y-41518610D01*
X60320361Y-42244324D01*
X59534171Y-42244324D01*
X58989885Y-41760514D02*
X58022266Y-41760514D01*
X56812742Y-42244324D02*
X57417504Y-42244324D01*
X57417504Y-40974324D01*
X56389409Y-41760514D02*
X55421790Y-41760514D01*
X54817028Y-42244324D02*
X54817028Y-40974324D01*
X54514647Y-40974324D01*
X54333219Y-41034800D01*
X54212266Y-41155752D01*
X54151790Y-41276705D01*
X54091314Y-41518610D01*
X54091314Y-41700038D01*
X54151790Y-41941943D01*
X54212266Y-42062895D01*
X54333219Y-42183848D01*
X54514647Y-42244324D01*
X54817028Y-42244324D01*
X53547028Y-42244324D02*
X53547028Y-40974324D01*
X53547028Y-41579086D02*
X52821314Y-41579086D01*
X52821314Y-42244324D02*
X52821314Y-40974324D01*
X145328115Y-40974324D02*
X144602400Y-40974324D01*
X144965257Y-42244324D02*
X144965257Y-40974324D01*
X143755734Y-41579086D02*
X144179067Y-41579086D01*
X144179067Y-42244324D02*
X144179067Y-40974324D01*
X143574305Y-40974324D01*
X143090496Y-42244324D02*
X143090496Y-40974324D01*
X142667163Y-41881467D01*
X142243829Y-40974324D01*
X142243829Y-42244324D01*
X141639067Y-41760514D02*
X140671448Y-41760514D01*
X139401448Y-42244324D02*
X140127162Y-42244324D01*
X139764305Y-42244324D02*
X139764305Y-40974324D01*
X139885257Y-41155752D01*
X140006210Y-41276705D01*
X140127162Y-41337181D01*
X138917638Y-41095276D02*
X138857162Y-41034800D01*
X138736210Y-40974324D01*
X138433829Y-40974324D01*
X138312876Y-41034800D01*
X138252400Y-41095276D01*
X138191924Y-41216229D01*
X138191924Y-41337181D01*
X138252400Y-41518610D01*
X138978114Y-42244324D01*
X138191924Y-42244324D01*
X137405733Y-40974324D02*
X137284781Y-40974324D01*
X137163829Y-41034800D01*
X137103352Y-41095276D01*
X137042876Y-41216229D01*
X136982400Y-41458133D01*
X136982400Y-41760514D01*
X137042876Y-42002419D01*
X137103352Y-42123371D01*
X137163829Y-42183848D01*
X137284781Y-42244324D01*
X137405733Y-42244324D01*
X137526686Y-42183848D01*
X137587162Y-42123371D01*
X137647638Y-42002419D01*
X137708114Y-41760514D01*
X137708114Y-41458133D01*
X137647638Y-41216229D01*
X137587162Y-41095276D01*
X137526686Y-41034800D01*
X137405733Y-40974324D01*
X136438114Y-41760514D02*
X135470495Y-41760514D01*
X134623828Y-40974324D02*
X134502876Y-40974324D01*
X134381924Y-41034800D01*
X134321447Y-41095276D01*
X134260971Y-41216229D01*
X134200495Y-41458133D01*
X134200495Y-41760514D01*
X134260971Y-42002419D01*
X134321447Y-42123371D01*
X134381924Y-42183848D01*
X134502876Y-42244324D01*
X134623828Y-42244324D01*
X134744781Y-42183848D01*
X134805257Y-42123371D01*
X134865733Y-42002419D01*
X134926209Y-41760514D01*
X134926209Y-41458133D01*
X134865733Y-41216229D01*
X134805257Y-41095276D01*
X134744781Y-41034800D01*
X134623828Y-40974324D01*
X133716685Y-41095276D02*
X133656209Y-41034800D01*
X133535257Y-40974324D01*
X133232876Y-40974324D01*
X133111923Y-41034800D01*
X133051447Y-41095276D01*
X132990971Y-41216229D01*
X132990971Y-41337181D01*
X133051447Y-41518610D01*
X133777161Y-42244324D01*
X132990971Y-42244324D01*
X132446685Y-41760514D02*
X131479066Y-41760514D01*
X130269542Y-42244324D02*
X130874304Y-42244324D01*
X130874304Y-40974324D01*
X129846209Y-41760514D02*
X128878590Y-41760514D01*
X128273828Y-42244324D02*
X128273828Y-40974324D01*
X127971447Y-40974324D01*
X127790019Y-41034800D01*
X127669066Y-41155752D01*
X127608590Y-41276705D01*
X127548114Y-41518610D01*
X127548114Y-41700038D01*
X127608590Y-41941943D01*
X127669066Y-42062895D01*
X127790019Y-42183848D01*
X127971447Y-42244324D01*
X128273828Y-42244324D01*
X127003828Y-42244324D02*
X127003828Y-40974324D01*
X127003828Y-41579086D02*
X126278114Y-41579086D01*
X126278114Y-42244324D02*
X126278114Y-40974324D01*
X109361715Y-41355324D02*
X108636000Y-41355324D01*
X108998857Y-42625324D02*
X108998857Y-41355324D01*
X107789334Y-41960086D02*
X108212667Y-41960086D01*
X108212667Y-42625324D02*
X108212667Y-41355324D01*
X107607905Y-41355324D01*
X107124096Y-42625324D02*
X107124096Y-41355324D01*
X106700763Y-42262467D01*
X106277429Y-41355324D01*
X106277429Y-42625324D01*
X105672667Y-42141514D02*
X104705048Y-42141514D01*
X103435048Y-42625324D02*
X104160762Y-42625324D01*
X103797905Y-42625324D02*
X103797905Y-41355324D01*
X103918857Y-41536752D01*
X104039810Y-41657705D01*
X104160762Y-41718181D01*
X102951238Y-41476276D02*
X102890762Y-41415800D01*
X102769810Y-41355324D01*
X102467429Y-41355324D01*
X102346476Y-41415800D01*
X102286000Y-41476276D01*
X102225524Y-41597229D01*
X102225524Y-41718181D01*
X102286000Y-41899610D01*
X103011714Y-42625324D01*
X102225524Y-42625324D01*
X101076476Y-41355324D02*
X101681238Y-41355324D01*
X101741714Y-41960086D01*
X101681238Y-41899610D01*
X101560286Y-41839133D01*
X101257905Y-41839133D01*
X101136952Y-41899610D01*
X101076476Y-41960086D01*
X101016000Y-42081038D01*
X101016000Y-42383419D01*
X101076476Y-42504371D01*
X101136952Y-42564848D01*
X101257905Y-42625324D01*
X101560286Y-42625324D01*
X101681238Y-42564848D01*
X101741714Y-42504371D01*
X100471714Y-42141514D02*
X99504095Y-42141514D01*
X98657428Y-41355324D02*
X98536476Y-41355324D01*
X98415524Y-41415800D01*
X98355047Y-41476276D01*
X98294571Y-41597229D01*
X98234095Y-41839133D01*
X98234095Y-42141514D01*
X98294571Y-42383419D01*
X98355047Y-42504371D01*
X98415524Y-42564848D01*
X98536476Y-42625324D01*
X98657428Y-42625324D01*
X98778381Y-42564848D01*
X98838857Y-42504371D01*
X98899333Y-42383419D01*
X98959809Y-42141514D01*
X98959809Y-41839133D01*
X98899333Y-41597229D01*
X98838857Y-41476276D01*
X98778381Y-41415800D01*
X98657428Y-41355324D01*
X97750285Y-41476276D02*
X97689809Y-41415800D01*
X97568857Y-41355324D01*
X97266476Y-41355324D01*
X97145523Y-41415800D01*
X97085047Y-41476276D01*
X97024571Y-41597229D01*
X97024571Y-41718181D01*
X97085047Y-41899610D01*
X97810761Y-42625324D01*
X97024571Y-42625324D01*
X96480285Y-42141514D02*
X95512666Y-42141514D01*
X94303142Y-42625324D02*
X94907904Y-42625324D01*
X94907904Y-41355324D01*
X93879809Y-42141514D02*
X92912190Y-42141514D01*
X92307428Y-42625324D02*
X92307428Y-41355324D01*
X92005047Y-41355324D01*
X91823619Y-41415800D01*
X91702666Y-41536752D01*
X91642190Y-41657705D01*
X91581714Y-41899610D01*
X91581714Y-42081038D01*
X91642190Y-42322943D01*
X91702666Y-42443895D01*
X91823619Y-42564848D01*
X92005047Y-42625324D01*
X92307428Y-42625324D01*
X91037428Y-42625324D02*
X91037428Y-41355324D01*
X91037428Y-41960086D02*
X90311714Y-41960086D01*
X90311714Y-42625324D02*
X90311714Y-41355324D01*
M02*
